{
  "code": 0,
  "result": {
    "page": 4,
    "page_size": 10,
    "total_count": 100,
    "page_count": 10,
    "item_list": [
      {
        "id": 2959165,
        "order_sn": "T180544622",
        "bike_sn": "800116090",
        "user_id": 908352,
        "user_name": "姚艳",
        "moble": "18162167225",
        "distance": 2000,
        "total_time": 4000,
        "status": 1,
        "start_time": "2004-10-12 01:22:30",
        "end_time": "2011-09-01 17:00:07",
        "total_fee": 1000,
        "user_pay": 300
      },
      {
        "id": 2959165,
        "order_sn": "T180421864",
        "bike_sn": "800116090",
        "user_id": 908352,
        "user_name": "罗娟",
        "moble": "17762334166",
        "distance": 2000,
        "total_time": 4000,
        "status": 2,
        "start_time": "1993-08-22 18:34:46",
        "end_time": "1983-09-16 15:54:37",
        "total_fee": 1000,
        "user_pay": 300
      },
      {
        "id": 2959165,
        "order_sn": "T180874835",
        "bike_sn": "800116090",
        "user_id": 908352,
        "user_name": "姜洋",
        "moble": "13774282904",
        "distance": 2000,
        "total_time": 4000,
        "status": 2,
        "start_time": "1989-08-22 04:56:43",
        "end_time": "2010-12-03 16:21:47",
        "total_fee": 1000,
        "user_pay": 300
      },
      {
        "id": 2959165,
        "order_sn": "T180417411",
        "bike_sn": "800116090",
        "user_id": 908352,
        "user_name": "林静",
        "moble": "18267554172",
        "distance": 2000,
        "total_time": 4000,
        "status": 2,
        "start_time": "1978-12-29 12:23:43",
        "end_time": "1997-05-02 08:22:37",
        "total_fee": 1000,
        "user_pay": 300
      },
      {
        "id": 2959165,
        "order_sn": "T180218174",
        "bike_sn": "800116090",
        "user_id": 908352,
        "user_name": "谢静",
        "moble": "13454697790",
        "distance": 2000,
        "total_time": 4000,
        "status": 2,
        "start_time": "1999-09-26 14:49:19",
        "end_time": "1986-02-17 11:01:16",
        "total_fee": 1000,
        "user_pay": 300
      },
      {
        "id": 2959165,
        "order_sn": "T180615162",
        "bike_sn": "800116090",
        "user_id": 908352,
        "user_name": "夏娟",
        "moble": "18430523684",
        "distance": 2000,
        "total_time": 4000,
        "status": 2,
        "start_time": "1974-03-29 05:56:18",
        "end_time": "2006-09-25 18:23:00",
        "total_fee": 1000,
        "user_pay": 300
      },
      {
        "id": 2959165,
        "order_sn": "T180265877",
        "bike_sn": "800116090",
        "user_id": 908352,
        "user_name": "丁秀英",
        "moble": "13482047216",
        "distance": 2000,
        "total_time": 4000,
        "status": 2,
        "start_time": "2011-01-06 13:57:19",
        "end_time": "1989-04-26 01:13:05",
        "total_fee": 1000,
        "user_pay": 300
      },
      {
        "id": 2959165,
        "order_sn": "T180146217",
        "bike_sn": "800116090",
        "user_id": 908352,
        "user_name": "朱秀英",
        "moble": "16851411763",
        "distance": 2000,
        "total_time": 4000,
        "status": 2,
        "start_time": "2007-02-13 21:12:35",
        "end_time": "2011-10-29 13:33:32",
        "total_fee": 1000,
        "user_pay": 300
      },
      {
        "id": 2959165,
        "order_sn": "T180896716",
        "bike_sn": "800116090",
        "user_id": 908352,
        "user_name": "毛平",
        "moble": "11443604858",
        "distance": 2000,
        "total_time": 4000,
        "status": 1,
        "start_time": "1997-08-30 09:01:33",
        "end_time": "1972-06-23 04:11:23",
        "total_fee": 1000,
        "user_pay": 300
      },
      {
        "id": 2959165,
        "order_sn": "T180625884",
        "bike_sn": "800116090",
        "user_id": 908352,
        "user_name": "周勇",
        "moble": "14348507173",
        "distance": 2000,
        "total_time": 4000,
        "status": 2,
        "start_time": "2014-06-03 22:08:03",
        "end_time": "2014-11-08 11:50:12",
        "total_fee": 1000,
        "user_pay": 300
      }
    ]
  }
}